{
  "inv":{
      "1":"inv#1-1-1",
      "2":"inv#1-1-2",
      "3":"inv#1-1-3",
      "4":"inv#1-1-4",
      "5":"inv#2-1-1",
      "6":"inv#2-1-2",
      "7":"inv#1-0-1",
      "8":"inv#1-0-2",
      "9":"inv#2-0-1",
      "10":"inv#2-0-2"
  },
  "ws": {
      "1":"ws#1-1"
  }
}