{
  "Growatt3003":{
      "2":"dc_power",
      "3":"voltage",
      "4":"current",
      "6":"power",
      "7":"voltage",
      "8":"current",
      "10":"power",
      "12":"ac_power",
      "13":"ac_frequency",
      "14":"l1_ac_vlg",
      "15":"l1_ac_current",
      "17":"apparent_power_1",
      "18":"l2_ac_vlg",
      "19":"l2_ac_current",
      "21":"apparent_power_2",
      "22":"l3_ac_vlg",
      "23":"l3_ac_current",
      "25":"apparent_power_3",
      "27":"energy_today",
      "29":"energy",
      "32":"inverter_temp",
      "40":"alert_code",
      "48":"reactive_power",
      "60":"voltage",
      "61":"current",
      "62":"voltage",
      "63":"current",
      "64":"voltage",
      "65":"current",
      "66":"voltage",
      "67":"current",
      "68":"voltage",
      "69":"current",
      "70":"voltage",
      "71":"current",
      "72":"voltage",
      "73":"current",
      "74":"voltage",
      "75":"current"
  },
  "Growatt_PM":{
      "2":"dc_power",
      "3":"voltage",
      "4":"current",
      "6":"power",
      "7":"voltage",
      "8":"current",
      "10":"power",
      "11":"voltage",
      "12":"current",
      "14":"power",
      "15":"voltage",
      "16":"current",
      "18":"power",
      "19":"voltage",
      "20":"current",
      "22":"power",
      "23":"voltage",
      "24":"current",
      "26":"power",
      "27":"voltage",
      "28":"current",
      "30":"power",
      "31":"voltage",
      "32":"current",
      "34":"power",
      "36":"ac_power",
      "37":"ac_frequency",
      "39":"l1_ac_current",
      "41":"apparent_power_1",
      "43":"l2_ac_current",
      "45":"apparent_power_2",
      "47":"l3_ac_current",
      "49":"apparent_power_3",
      "50":"l1_ac_vlg",
      "51":"l2_ac_vlg",
      "52":"l3_ac_vlg",
      "54":"energy_today",
      "56":"energy",
      "93":"inverter_temp",
      "105":"alert_code"
  },
  "Growatt_PM1":{
      "2":"dc_power",
      "3":"voltage",
      "4":"current",
      "6":"power",
      "7":"voltage",
      "8":"current",
      "10":"power",
      "11":"voltage",
      "12":"current",
      "14":"power",
      "15":"voltage",
      "16":"current",
      "18":"power",
      "19":"voltage",
      "20":"current",
      "22":"power",
      "23":"voltage",
      "24":"current",
      "26":"power",
      "27":"voltage",
      "28":"current",
      "30":"power",
      "31":"voltage",
      "32":"current",
      "34":"power",
      "36":"ac_power",
      "37":"ac_frequency",
      "39":"l1_ac_current",
      "41":"apparent_power_1",
      "43":"l2_ac_current",
      "45":"apparent_power_2",
      "47":"l3_ac_current",
      "49":"apparent_power_3",
      "50":"l1_ac_vlg",
      "51":"l2_ac_vlg",
      "52":"l3_ac_vlg",
      "54":"energy_today",
      "56":"energy",
      "93":"inverter_temp",
      "105":"alert_code"
  },
  "Secure_Elite_300":{
      "1":"v1",
      "2":"v2",
      "3":"v3",
      "5":"v12",
      "6":"v23",
      "7":"v31",
      "8":"line_current_1",
      "9":"line_current_2",
      "10":"line_current_3",
      "21":"avg_power_factor",
      "25":"ac_power",
      "29":"reactive_power",
      "33":"apparent_power",
      "37":"frequency",
      "38":"active_total_import_cumulative",
      "39":"active_total_export_cumulative"
  },
  "WPM00D22F_IO":{
      "6":"irradiance_vertical"
  }
}
