{
  "201": {
    "I1": "inv#1-1-1",
    "I2": "inv#2-1-1",
    "I3": "inv#3-1-1",
    "I4": "inv#3-1-2",
    "I5": "inv#4-1-1",
    "I6": "inv#4-1-2",
    "DM1": "mfm#1-6",
    "SM": "mfm#0-1",
    "MM1": "mfm#1-2",
    "MM2": "mfm#1-3",
    "MM3": "mfm#1-4",
    "MM4": "mfm#1-5",
    "S1": "mppt#1-1-1",
    "S2": "mppt#2-1-1",
    "S3": "mppt#3-1-1",
    "S4": "mppt#4-1-1",
    "WS": "ws#1-1"
  },
  "202": {
    "I1": "inv#1-1-1",
    "I2": "inv#1-1-2",
    "I3": "inv#2-1-1",
    "I4": "inv#2-1-2",
    "DM1": "mfm#1-4",
    "SM": "mfm#0-1",
    "MM1": "mfm#1-2",
    "MM2": "mfm#1-3",
    "S1": "mppt#1-1-1",
    "S2": "mppt#1-1-2",
    "S3": "mppt#2-1-1",
    "S4": "mppt#2-1-2"
  },
  "203": {
    "I1": "inv#1-1-1",
    "I2": "inv#1-1-2",
    "I3": "inv#2-1-1",
    "I4": "inv#3-1-1",
    "I5": "inv#3-1-2",
    "I6": "inv#4-1-1",
    "I7": "inv#5-1-1",
    "I8": "inv#5-1-2",
    "I9": "inv#5-1-3",
    "I10": "inv#6-1-1",
    "I11": "inv#7-1-1",
    "I12": "inv#7-1-2",
    "I13": "inv#7-1-3",
    "I14": "inv#8-1-1",
    "I15": "inv#8-1-2",
    "I16": "inv#9-1-1",
    "I17": "inv#10-1-1",
    "I18": "inv#11-1-1",
    "I19": "inv#12-1-1",
    "I20": "inv#13-1-1",
    "I21": "inv#14-1-1",
    "DM1": "mfm#15-1",
    "SM": "mfm#0-1",
    "MM1": "mfm#1-1",
    "MM2": "mfm#2-1",
    "MM3": "mfm#3-1",
    "MM4": "mfm#4-1",
    "MM5": "mfm#5-1",
    "MM6": "mfm#6-1",
    "MM7": "mfm#7-1",
    "MM8": "mfm#8-1",
    "MM9": "mfm#9-1",
    "MM10": "mfm#10-1",
    "MM11": "mfm#11-1",
    "MM12": "mfm#12-1",
    "MM13": "mfm#13-1",
    "MM14": "mfm#14-1",
    "S1": "mppt#1-1-1",
    "S2": "mppt#1-1-2",
    "S3": "mppt#2-1-1",
    "S4": "mppt#3-1-1",
    "S5": "mppt#3-1-2",
    "S6": "mppt#4-1-1",
    "S7": "mppt#5-1-1",
    "S8": "mppt#5-1-2",
    "S9": "mppt#5-1-3",
    "S10": "mppt#6-1-1",
    "S11": "mppt#7-1-1",
    "S12": "mppt#7-1-2",
    "S13": "mppt#7-1-3",
    "S14": "mppt#8-1-1",
    "S15": "mppt#8-1-2",
    "S16": "mppt#9-1-1",
    "S17": "mppt#10-1-1",
    "S18": "mppt#11-1-1",
    "S19": "mppt#12-1-1",
    "S20": "mppt#13-1-1",
    "S21": "mppt#14-1-1",
    "WS": "ws#1-1"
  },
  "204": {
    "I1": "inv#1-1-1",
    "I2": "inv#1-1-2",
    "SM": "mfm#0-1",
    "MM0": "mfm#1-2",
    "S1": "mppt#1-1-1",
    "S2": "mppt#1-1-2"
  },
  "205": {
    "I1": "inv#1-1-1",
    "I2": "inv#2-1-1",
    "SM": "mfm#0-1",
    "MM0": "mfm#1-2",
    "MM1": "mfm#1-3",
    "S1": "mppt#1-1-1",
    "S2": "mppt#2-1-1"
  },
  "206": {
    "I1": "inv#1-1-1",
    "I2": "inv#1-1-2",
    "I3": "inv#2-1-1",
    "I4": "inv#2-1-1",
    "I5": "inv#2-1-3",
    "I6": "inv#3-1-1",
    "I7": "inv#3-1-2",
    "I8": "inv#3-1-3",
    "I9": "inv#4-1-1",
    "I10": "inv#4-1-2",
    "I11": "inv#4-1-3",
    "I12": "inv#4-1-4",
    "SM": "mfm#0-1",
    "MM1": "mfm#1-2",
    "MM2": "mfm#2-1",
    "MM3": "mfm#3-1",
    "MM4": "mfm#4-1",
    "S1": "mppt#1-1-1",
    "S2": "mppt#1-1-2",
    "S3": "mppt#2-1-1",
    "S4": "mppt#2-1-2",
    "S5": "mppt#2-1-3",
    "S6": "mppt#3-1-1",
    "S7": "mppt#3-1-2",
    "S8": "mppt#3-1-3",
    "S9": "mppt#4-1-1",
    "S10": "mppt#4-1-2",
    "S11": "mppt#4-1-3",
    "S12": "mppt#4-1-4"
  },
  "207": {
    "I1": "inv#1-1-1",
    "I2": "inv#1-1-2",
    "I3": "inv#2-1-1",
    "I4": "inv#3-1-1",
    "I5": "inv#4-1-1",
    "I6": "inv#4-1-2",
    "SM": "mfm#0-1",
    "MM1": "mfm#1-2",
    "MM2": "mfm#2-1",
    "MM3": "mfm#3-1",
    "MM4": "mfm#4-1",
    "S1": "mppt#1-1-1",
    "S2": "mppt#1-1-2",
    "S3": "mppt#2-1-1",
    "S4": "mppt#3-1-1",
    "S5": "mppt#4-1-1",
    "S6": "mppt#4-1-2"
  },
  "208": {
    "I1": "inv#1-1-1",
    "I2": "inv#1-1-2",
    "I3": "inv#2-1-1",
    "I4": "inv#3-1-1",
    "I5": "inv#4-1-1",
    "I6": "inv#4-1-2",
    "I7": "inv#5-1-1",
    "I8": "inv#5-1-2",
    "I9": "inv#6-1-1",
    "I10": "inv#7-1-1",
    "I11": "inv#8-1-1",
    "I12": "inv#8-1-2",
    "I13": "inv#9-1-1",
    "I14": "inv#9-1-2",
    "I15": "inv#10-1-1",
    "I16": "inv#10-1-2",
    "I17": "inv#11-1-1",
    "SM": "mfm#0-1",
    "MM1": "mfm#1-2",
    "MM2": "mfm#2-1",
    "MM3": "mfm#3-1",
    "MM4": "mfm#4-1",
    "MM5": "mfm#5-2",
    "MM6": "mfm#6-1",
    "MM7": "mfm#7-1",
    "MM8": "mfm#8-1",
    "MM9": "mfm#9-2",
    "MM10": "mfm#10-1",
    "MM11": "mfm#11-1",
    "MM12": "mfm#12-1",
    "S1": "mppt#1-1-1",
    "S2": "mppt#1-1-2",
    "S3": "mppt#2-1-1",
    "S4": "mppt#3-1-1",
    "S5": "mppt#4-1-1",
    "S6": "mppt#4-1-2",
    "S7": "mppt#5-1-1",
    "S8": "mppt#5-1-2",
    "S9": "mppt#6-1-1",
    "S10": "mppt#7-1-1",
    "S11": "mppt#7-1-2",
    "S12": "mppt#8-1-1",
    "S13": "mppt#8-1-2",
    "S14": "mppt#9-1-1",
    "S15": "mppt#9-1-2",
    "S16": "mppt#10-1-1",
    "S17": "mppt#10-1-2",
    "S18": "mppt#11-1-1",
    "WS": "ws#1-1"
  },
  "209": {
    "I1": "inv#1-1-1",
    "I2": "inv#2-1-1",
    "I3": "inv#3-1-1",
    "I4": "inv#4-1-1",
    "I5": "inv#4-1-2",
    "I6": "inv#5-1-1",
    "I7": "inv#6-1-1",
    "I8": "inv#7-1-1",
    "I9": "inv#7-1-2",
    "I10": "inv#8-1-1",
    "SM": "mfm#0-1",
    "MM1": "mfm#1-2",
    "MM2": "mfm#2-1",
    "MM3": "mfm#3-1",
    "MM4": "mfm#4-1",
    "MM5": "mfm#5-2",
    "MM6": "mfm#6-1",
    "MM7": "mfm#7-1",
    "MM8": "mfm#8-1",
    "S1": "mppt#1-1-1",
    "S2": "mppt#2-1-1",
    "S3": "mppt#3-1-1",
    "S4": "mppt#4-1-1",
    "S5": "mppt#4-1-2",
    "S6": "mppt#5-1-1",
    "S7": "mppt#6-1-1",
    "S8": "mppt#7-1-1",
    "S9": "mppt#8-1-1",
    "WS": "ws#1-1"
  },
  "210": {
    "I1": "inv#1-1-1",
    "I2": "inv#1-1-2",
    "I3": "inv#2-1-1",
    "I4": "inv#2-1-2",
    "I5": "inv#3-1-1",
    "SM": "mfm#0-1",
    "MM1": "mfm#1-2",
    "MM2": "mfm#2-1",
    "MM3": "mfm#3-1",
    "S1": "mppt#1-1-1",
    "S2": "mppt#1-1-2",
    "S3": "mppt#2-1-1",
    "S4": "mppt#2-1-2",
    "S5": "mppt#3-1-1",
    "WS": "ws#1-1"
  },
  "211": {
    "I1": "inv#1-1-1",
    "I2": "inv#2-1-1",
    "SM": "mfm#0-1",
    "MM1": "mfm#1-2",
    "MM2": "mfm#2-1",
    "S1": "mppt#1-1-1",
    "S2": "mppt#2-1-1",
    "WS": "ws#1-1"
  },
  "212": {
    "I1": "inv#1-1-1",
    "I2": "inv#2-1-1",
    "I3": "inv#2-1-2",
    "SM": "mfm#0-1",
    "MM1": "mfm#1-2",
    "MM2": "mfm#2-1",
    "S1": "mppt#1-1-1",
    "S2": "mppt#2-1-1",
    "S3": "mppt#2-1-2",
    "WS": "ws#1-1"
  },
  "213": {
    "I1": "inv#1-1-1",
    "I2": "inv#1-1-2",
    "I3": "inv#1-1-3",
    "I4": "inv#2-1-1",
    "I5": "inv#3-1-1",
    "SM": "mfm#0-1",
    "MM1": "mfm#1-2",
    "MM2": "mfm#2-1",
    "MM3": "mfm#3-1",
    "S1": "mppt#1-1-1",
    "S2": "mppt#1-1-2",
    "S3": "mppt#1-1-3",
    "S4": "mppt#2-1-1",
    "S5": "mppt#3-1-1",
    "WS": "ws#1-1"
  },
  "214": {
    "I1": "inv#1-1-1",
    "SM": "mfm#0-1",
    "MM0": "mfm#1-1",
    "S1": "mppt#1-1-1",
    "WS": "ws#1-1"
  },
  "215": {
    "I1": "inv#1-1-1",
    "I2": "inv#2-1-1",
    "I3": "inv#2-1-2",
    "SM": "mfm#0-1",
    "MM0": "mfm#1-2",
    "MM1": "mfm#2-1",
    "S1": "mppt#1-1-1",
    "S2": "mppt#2-1-1",
    "WS": "ws#1-1"
  },
  "216": {
    "I1": "inv#1-1-1",
    "SM": "mfm#1-1",
    "S1": "mppt#1-1-1",
    "WS": "ws#1-1"
  },
  "217": {
    "I1": "inv#1-1-1",
    "I2": "inv#1-1-2",
    "SM": "mfm#1-1",
    "S1": "mppt#1-1-1",
    "S2": "mppt#1-1-2",
    "WS": "ws#1-1"
  },
  "218": {
    "I1": "inv#1-1-1",
    "I2": "inv#1-1-2",
    "SM": "mfm#0-1",
    "MM1": "mfm#1-1",
    "S1": "mppt#1-1-1",
    "S2": "mppt#1-1-2",
    "S3": "mppt#1-1-3",
    "S4": "mppt#1-1-4"
  },
  "219": {
    "I1": "inv#1-1-1",
    "I2": "inv#1-1-2",
    "I3": "inv#2-1-1",
    "I4": "inv#3-1-1",
    "SM": "mfm#0-1",
    "MM1": "mfm#1-1",
    "MM2": "mfm#2-1",
    "MM3": "mfm#3-1",
    "S1": "mppt#1-1-1",
    "S2": "mppt#1-1-2",
    "S3": "mppt#2-1-1",
    "S4": "mppt#3-1-1",
    "WS": "ws#1-1"
  }
}
